<?xml version="1.0" encoding="UTF-8"?>
<testsuite xmlns:xsi="http://www.w3.org/2001/XMLSchema-instance" xsi:noNamespaceSchemaLocation="https://maven.apache.org/surefire/maven-surefire-plugin/xsd/surefire-test-report-3.0.xsd" version="3.0" name="cucumbertest.RunCucumberTest" time="10.816" tests="4" errors="0" skipped="0" failures="0">
  <properties>
    <property name="http.proxyHost" value="127.0.0.1"/>
    <property name="java.specification.version" value="16"/>
    <property name="sun.jnu.encoding" value="UTF-8"/>
    <property name="java.class.path" value="/Users/layyanar/Documents/Git/RestAssuredCucumber/restassured-cucumber-docker/target/test-classes:/Users/layyanar/Documents/Git/RestAssuredCucumber/restassured-cucumber-docker/target/classes:/Users/layyanar/.m2/repository/io/cucumber/cucumber-java/6.10.4/cucumber-java-6.10.4.jar:/Users/layyanar/.m2/repository/io/cucumber/cucumber-core/6.10.4/cucumber-core-6.10.4.jar:/Users/layyanar/.m2/repository/io/cucumber/cucumber-gherkin/6.10.4/cucumber-gherkin-6.10.4.jar:/Users/layyanar/.m2/repository/io/cucumber/cucumber-gherkin-messages/6.10.4/cucumber-gherkin-messages-6.10.4.jar:/Users/layyanar/.m2/repository/io/cucumber/messages/15.0.0/messages-15.0.0.jar:/Users/layyanar/.m2/repository/io/cucumber/tag-expressions/3.0.1/tag-expressions-3.0.1.jar:/Users/layyanar/.m2/repository/io/cucumber/cucumber-expressions/10.3.0/cucumber-expressions-10.3.0.jar:/Users/layyanar/.m2/repository/io/cucumber/datatable/3.5.0/datatable-3.5.0.jar:/Users/layyanar/.m2/repository/io/cucumber/cucumber-plugin/6.10.4/cucumber-plugin-6.10.4.jar:/Users/layyanar/.m2/repository/io/cucumber/docstring/6.10.4/docstring-6.10.4.jar:/Users/layyanar/.m2/repository/io/cucumber/html-formatter/13.0.0/html-formatter-13.0.0.jar:/Users/layyanar/.m2/repository/io/cucumber/create-meta/4.0.0/create-meta-4.0.0.jar:/Users/layyanar/.m2/repository/org/apiguardian/apiguardian-api/1.1.1/apiguardian-api-1.1.1.jar:/Users/layyanar/.m2/repository/io/cucumber/cucumber-junit/6.10.4/cucumber-junit-6.10.4.jar:/Users/layyanar/.m2/repository/junit/junit/4.13.2/junit-4.13.2.jar:/Users/layyanar/.m2/repository/org/hamcrest/hamcrest-core/1.3/hamcrest-core-1.3.jar:/Users/layyanar/.m2/repository/io/rest-assured/rest-assured/4.4.0/rest-assured-4.4.0.jar:/Users/layyanar/.m2/repository/org/codehaus/groovy/groovy/3.0.8/groovy-3.0.8.jar:/Users/layyanar/.m2/repository/org/codehaus/groovy/groovy-xml/3.0.8/groovy-xml-3.0.8.jar:/Users/layyanar/.m2/repository/org/apache/httpcomponents/httpclient/4.5.13/httpclient-4.5.13.jar:/Users/layyanar/.m2/repository/org/apache/httpcomponents/httpcore/4.4.13/httpcore-4.4.13.jar:/Users/layyanar/.m2/repository/commons-logging/commons-logging/1.2/commons-logging-1.2.jar:/Users/layyanar/.m2/repository/commons-codec/commons-codec/1.11/commons-codec-1.11.jar:/Users/layyanar/.m2/repository/org/apache/httpcomponents/httpmime/4.5.13/httpmime-4.5.13.jar:/Users/layyanar/.m2/repository/org/hamcrest/hamcrest/2.1/hamcrest-2.1.jar:/Users/layyanar/.m2/repository/org/ccil/cowan/tagsoup/tagsoup/1.2.1/tagsoup-1.2.1.jar:/Users/layyanar/.m2/repository/io/rest-assured/json-path/4.4.0/json-path-4.4.0.jar:/Users/layyanar/.m2/repository/org/codehaus/groovy/groovy-json/3.0.8/groovy-json-3.0.8.jar:/Users/layyanar/.m2/repository/io/rest-assured/rest-assured-common/4.4.0/rest-assured-common-4.4.0.jar:/Users/layyanar/.m2/repository/io/rest-assured/xml-path/4.4.0/xml-path-4.4.0.jar:/Users/layyanar/.m2/repository/org/apache/commons/commons-lang3/3.11/commons-lang3-3.11.jar:/Users/layyanar/.m2/repository/jakarta/xml/bind/jakarta.xml.bind-api/2.3.3/jakarta.xml.bind-api-2.3.3.jar:/Users/layyanar/.m2/repository/jakarta/activation/jakarta.activation-api/1.2.2/jakarta.activation-api-1.2.2.jar:/Users/layyanar/.m2/repository/com/sun/xml/bind/jaxb-impl/2.3.3/jaxb-impl-2.3.3.jar:/Users/layyanar/.m2/repository/io/cucumber/cucumber-picocontainer/1.2.6/cucumber-picocontainer-1.2.6.jar:/Users/layyanar/.m2/repository/info/cukes/cucumber-jvm-deps/1.0.5/cucumber-jvm-deps-1.0.5.jar:/Users/layyanar/.m2/repository/info/cukes/gherkin/2.12.2/gherkin-2.12.2.jar:/Users/layyanar/.m2/repository/org/picocontainer/picocontainer/2.15/picocontainer-2.15.jar:/Users/layyanar/.m2/repository/com/googlecode/json-simple/json-simple/1.1.1/json-simple-1.1.1.jar:/Users/layyanar/.m2/repository/org/apache/poi/poi-ooxml/4.1.2/poi-ooxml-4.1.2.jar:/Users/layyanar/.m2/repository/org/apache/poi/poi/4.1.2/poi-4.1.2.jar:/Users/layyanar/.m2/repository/org/apache/commons/commons-collections4/4.4/commons-collections4-4.4.jar:/Users/layyanar/.m2/repository/org/apache/commons/commons-math3/3.6.1/commons-math3-3.6.1.jar:/Users/layyanar/.m2/repository/com/zaxxer/SparseBitSet/1.2/SparseBitSet-1.2.jar:/Users/layyanar/.m2/repository/org/apache/poi/poi-ooxml-schemas/4.1.2/poi-ooxml-schemas-4.1.2.jar:/Users/layyanar/.m2/repository/org/apache/xmlbeans/xmlbeans/3.1.0/xmlbeans-3.1.0.jar:/Users/layyanar/.m2/repository/org/apache/commons/commons-compress/1.19/commons-compress-1.19.jar:/Users/layyanar/.m2/repository/com/github/virtuald/curvesapi/1.06/curvesapi-1.06.jar:"/>
    <property name="https.proxyPort" value="8888"/>
    <property name="java.vm.vendor" value="Homebrew"/>
    <property name="sun.arch.data.model" value="64"/>
    <property name="java.vendor.url" value="https://github.com/Homebrew/homebrew-core/issues"/>
    <property name="os.name" value="Mac OS X"/>
    <property name="java.vm.specification.version" value="16"/>
    <property name="sun.java.launcher" value="SUN_STANDARD"/>
    <property name="user.country" value="AU"/>
    <property name="sun.boot.library.path" value="/usr/local/Cellar/openjdk/16.0.1/libexec/openjdk.jdk/Contents/Home/lib"/>
    <property name="sun.java.command" value="/Users/layyanar/Documents/Git/RestAssuredCucumber/restassured-cucumber-docker/target/surefire/surefirebooter7271812504440502407.jar /Users/layyanar/Documents/Git/RestAssuredCucumber/restassured-cucumber-docker/target/surefire 2021-07-28T21-07-16_294-jvmRun1 surefire17810239881239046822tmp surefire_02053849345333051884tmp"/>
    <property name="jdk.debug" value="release"/>
    <property name="surefire.test.class.path" value="/Users/layyanar/Documents/Git/RestAssuredCucumber/restassured-cucumber-docker/target/test-classes:/Users/layyanar/Documents/Git/RestAssuredCucumber/restassured-cucumber-docker/target/classes:/Users/layyanar/.m2/repository/io/cucumber/cucumber-java/6.10.4/cucumber-java-6.10.4.jar:/Users/layyanar/.m2/repository/io/cucumber/cucumber-core/6.10.4/cucumber-core-6.10.4.jar:/Users/layyanar/.m2/repository/io/cucumber/cucumber-gherkin/6.10.4/cucumber-gherkin-6.10.4.jar:/Users/layyanar/.m2/repository/io/cucumber/cucumber-gherkin-messages/6.10.4/cucumber-gherkin-messages-6.10.4.jar:/Users/layyanar/.m2/repository/io/cucumber/messages/15.0.0/messages-15.0.0.jar:/Users/layyanar/.m2/repository/io/cucumber/tag-expressions/3.0.1/tag-expressions-3.0.1.jar:/Users/layyanar/.m2/repository/io/cucumber/cucumber-expressions/10.3.0/cucumber-expressions-10.3.0.jar:/Users/layyanar/.m2/repository/io/cucumber/datatable/3.5.0/datatable-3.5.0.jar:/Users/layyanar/.m2/repository/io/cucumber/cucumber-plugin/6.10.4/cucumber-plugin-6.10.4.jar:/Users/layyanar/.m2/repository/io/cucumber/docstring/6.10.4/docstring-6.10.4.jar:/Users/layyanar/.m2/repository/io/cucumber/html-formatter/13.0.0/html-formatter-13.0.0.jar:/Users/layyanar/.m2/repository/io/cucumber/create-meta/4.0.0/create-meta-4.0.0.jar:/Users/layyanar/.m2/repository/org/apiguardian/apiguardian-api/1.1.1/apiguardian-api-1.1.1.jar:/Users/layyanar/.m2/repository/io/cucumber/cucumber-junit/6.10.4/cucumber-junit-6.10.4.jar:/Users/layyanar/.m2/repository/junit/junit/4.13.2/junit-4.13.2.jar:/Users/layyanar/.m2/repository/org/hamcrest/hamcrest-core/1.3/hamcrest-core-1.3.jar:/Users/layyanar/.m2/repository/io/rest-assured/rest-assured/4.4.0/rest-assured-4.4.0.jar:/Users/layyanar/.m2/repository/org/codehaus/groovy/groovy/3.0.8/groovy-3.0.8.jar:/Users/layyanar/.m2/repository/org/codehaus/groovy/groovy-xml/3.0.8/groovy-xml-3.0.8.jar:/Users/layyanar/.m2/repository/org/apache/httpcomponents/httpclient/4.5.13/httpclient-4.5.13.jar:/Users/layyanar/.m2/repository/org/apache/httpcomponents/httpcore/4.4.13/httpcore-4.4.13.jar:/Users/layyanar/.m2/repository/commons-logging/commons-logging/1.2/commons-logging-1.2.jar:/Users/layyanar/.m2/repository/commons-codec/commons-codec/1.11/commons-codec-1.11.jar:/Users/layyanar/.m2/repository/org/apache/httpcomponents/httpmime/4.5.13/httpmime-4.5.13.jar:/Users/layyanar/.m2/repository/org/hamcrest/hamcrest/2.1/hamcrest-2.1.jar:/Users/layyanar/.m2/repository/org/ccil/cowan/tagsoup/tagsoup/1.2.1/tagsoup-1.2.1.jar:/Users/layyanar/.m2/repository/io/rest-assured/json-path/4.4.0/json-path-4.4.0.jar:/Users/layyanar/.m2/repository/org/codehaus/groovy/groovy-json/3.0.8/groovy-json-3.0.8.jar:/Users/layyanar/.m2/repository/io/rest-assured/rest-assured-common/4.4.0/rest-assured-common-4.4.0.jar:/Users/layyanar/.m2/repository/io/rest-assured/xml-path/4.4.0/xml-path-4.4.0.jar:/Users/layyanar/.m2/repository/org/apache/commons/commons-lang3/3.11/commons-lang3-3.11.jar:/Users/layyanar/.m2/repository/jakarta/xml/bind/jakarta.xml.bind-api/2.3.3/jakarta.xml.bind-api-2.3.3.jar:/Users/layyanar/.m2/repository/jakarta/activation/jakarta.activation-api/1.2.2/jakarta.activation-api-1.2.2.jar:/Users/layyanar/.m2/repository/com/sun/xml/bind/jaxb-impl/2.3.3/jaxb-impl-2.3.3.jar:/Users/layyanar/.m2/repository/io/cucumber/cucumber-picocontainer/1.2.6/cucumber-picocontainer-1.2.6.jar:/Users/layyanar/.m2/repository/info/cukes/cucumber-jvm-deps/1.0.5/cucumber-jvm-deps-1.0.5.jar:/Users/layyanar/.m2/repository/info/cukes/gherkin/2.12.2/gherkin-2.12.2.jar:/Users/layyanar/.m2/repository/org/picocontainer/picocontainer/2.15/picocontainer-2.15.jar:/Users/layyanar/.m2/repository/com/googlecode/json-simple/json-simple/1.1.1/json-simple-1.1.1.jar:/Users/layyanar/.m2/repository/org/apache/poi/poi-ooxml/4.1.2/poi-ooxml-4.1.2.jar:/Users/layyanar/.m2/repository/org/apache/poi/poi/4.1.2/poi-4.1.2.jar:/Users/layyanar/.m2/repository/org/apache/commons/commons-collections4/4.4/commons-collections4-4.4.jar:/Users/layyanar/.m2/repository/org/apache/commons/commons-math3/3.6.1/commons-math3-3.6.1.jar:/Users/layyanar/.m2/repository/com/zaxxer/SparseBitSet/1.2/SparseBitSet-1.2.jar:/Users/layyanar/.m2/repository/org/apache/poi/poi-ooxml-schemas/4.1.2/poi-ooxml-schemas-4.1.2.jar:/Users/layyanar/.m2/repository/org/apache/xmlbeans/xmlbeans/3.1.0/xmlbeans-3.1.0.jar:/Users/layyanar/.m2/repository/org/apache/commons/commons-compress/1.19/commons-compress-1.19.jar:/Users/layyanar/.m2/repository/com/github/virtuald/curvesapi/1.06/curvesapi-1.06.jar:"/>
    <property name="sun.cpu.endian" value="little"/>
    <property name="user.home" value="/Users/layyanar"/>
    <property name="user.language" value="en"/>
    <property name="java.specification.vendor" value="Oracle Corporation"/>
    <property name="java.version.date" value="2021-04-20"/>
    <property name="java.home" value="/usr/local/Cellar/openjdk/16.0.1/libexec/openjdk.jdk/Contents/Home"/>
    <property name="file.separator" value="/"/>
    <property name="https.proxyHost" value="127.0.0.1"/>
    <property name="basedir" value="/Users/layyanar/Documents/Git/RestAssuredCucumber/restassured-cucumber-docker"/>
    <property name="java.vm.compressedOopsMode" value="Zero based"/>
    <property name="line.separator" value="&#10;"/>
    <property name="java.specification.name" value="Java Platform API Specification"/>
    <property name="java.vm.specification.vendor" value="Oracle Corporation"/>
    <property name="surefire.real.class.path" value="/Users/layyanar/Documents/Git/RestAssuredCucumber/restassured-cucumber-docker/target/surefire/surefirebooter7271812504440502407.jar"/>
    <property name="sun.management.compiler" value="HotSpot 64-Bit Tiered Compilers"/>
    <property name="java.runtime.version" value="16.0.1+0"/>
    <property name="user.name" value="layyanar"/>
    <property name="path.separator" value=":"/>
    <property name="os.version" value="11.4"/>
    <property name="java.runtime.name" value="OpenJDK Runtime Environment"/>
    <property name="file.encoding" value="UTF-8"/>
    <property name="java.vm.name" value="OpenJDK 64-Bit Server VM"/>
    <property name="java.vendor.version" value="Homebrew"/>
    <property name="localRepository" value="/Users/layyanar/.m2/repository"/>
    <property name="java.vendor.url.bug" value="https://github.com/Homebrew/homebrew-core/issues"/>
    <property name="java.io.tmpdir" value="/var/folders/f0/h457djqd41bfvqltlnc9h3nc0000gn/T/"/>
    <property name="java.version" value="16.0.1"/>
    <property name="user.dir" value="/Users/layyanar/Documents/Git/RestAssuredCucumber/restassured-cucumber-docker"/>
    <property name="os.arch" value="x86_64"/>
    <property name="java.vm.specification.name" value="Java Virtual Machine Specification"/>
    <property name="java.library.path" value="/Users/layyanar/Library/Java/Extensions:/Library/Java/Extensions:/Network/Library/Java/Extensions:/System/Library/Java/Extensions:/usr/lib/java:."/>
    <property name="java.vm.info" value="mixed mode, sharing"/>
    <property name="java.vendor" value="Homebrew"/>
    <property name="java.vm.version" value="16.0.1+0"/>
    <property name="sun.io.unicode.encoding" value="UnicodeBig"/>
    <property name="java.class.version" value="60.0"/>
    <property name="http.proxyPort" value="8888"/>
  </properties>
  <testcase name="Get users" classname="Validate User API" time="6.029">
    <system-out><![CDATA[
@TestGetUser
Scenario: Get users      &amp#27;[90m# src/test/resources/features/UserAPIValidation.feature:4&amp#27;[0m
HTTP/1.1 200 OK
Date: Wed, 28 Jul 2021 11:07:24 GMT
Content-Type: application/json; charset=utf-8
Transfer-Encoding: chunked
Connection: keep-alive
X-Powered-By: Express
Access-Control-Allow-Origin: *
Etag: W/"406-ut0vzoCuidvyMf8arZpMpJ6ZRDw"
Via: 1.1 vegur
Cache-Control: max-age=14400
CF-Cache-Status: HIT
Age: 1536
Expect-CT: max-age=604800, report-uri="https://report-uri.cloudflare.com/cdn-cgi/beacon/expect-ct"
Report-To: {"endpoints":[{"url":"https:\/\/a.nel.cloudflare.com\/report\/v3?s=lJYjrGTN%2BlSxuOb7Wr6WG4a3wEyUFjlxEzom%2BW6LL6bc2spwoN4heUtnGxZONg9%2Fp%2BANmBa1cxMhd4QhT2wsOqRuOCDmIU%2FPGZQJooPhP7JrRH0DLPel20I4hyE%3D"}],"group":"cf-nel","max_age":604800}
NEL: {"report_to":"cf-nel","max_age":604800}
Vary: Accept-Encoding
Server: cloudflare
CF-RAY: 675da4c5e8e01fcf-NRT
Content-Encoding: gzip
alt-svc: h3-27=":443"; ma=86400, h3-28=":443"; ma=86400, h3-29=":443"; ma=86400, h3=":443"; ma=86400

{
    "page": 2,
    "per_page": 6,
    "total": 12,
    "total_pages": 2,
    "data": [
        {
            "id": 7,
            "email": "michael.lawson@reqres.in",
            "first_name": "Michael",
            "last_name": "Lawson",
            "avatar": "https://reqres.in/img/faces/7-image.jpg"
        },
        {
            "id": 8,
            "email": "lindsay.ferguson@reqres.in",
            "first_name": "Lindsay",
            "last_name": "Ferguson",
            "avatar": "https://reqres.in/img/faces/8-image.jpg"
        },
        {
            "id": 9,
            "email": "tobias.funke@reqres.in",
            "first_name": "Tobias",
            "last_name": "Funke",
            "avatar": "https://reqres.in/img/faces/9-image.jpg"
        },
        {
            "id": 10,
            "email": "byron.fields@reqres.in",
            "first_name": "Byron",
            "last_name": "Fields",
            "avatar": "https://reqres.in/img/faces/10-image.jpg"
        },
        {
            "id": 11,
            "email": "george.edwards@reqres.in",
            "first_name": "George",
            "last_name": "Edwards",
            "avatar": "https://reqres.in/img/faces/11-image.jpg"
        },
        {
            "id": 12,
            "email": "rachel.howell@reqres.in",
            "first_name": "Rachel",
            "last_name": "Howell",
            "avatar": "https://reqres.in/img/faces/12-image.jpg"
        }
    ],
    "support": {
        "url": "https://reqres.in/#support-heading",
        "text": "To keep ReqRes free, contributions towards server costs are appreciated!"
    }
}
{
    "page": 2,
    "per_page": 6,
    "total": 12,
    "total_pages": 2,
    "data": [
        {
            "id": 7,
            "email": "michael.lawson@reqres.in",
            "first_name": "Michael",
            "last_name": "Lawson",
            "avatar": "https://reqres.in/img/faces/7-image.jpg"
        },
        {
            "id": 8,
            "email": "lindsay.ferguson@reqres.in",
            "first_name": "Lindsay",
            "last_name": "Ferguson",
            "avatar": "https://reqres.in/img/faces/8-image.jpg"
        },
        {
            "id": 9,
            "email": "tobias.funke@reqres.in",
            "first_name": "Tobias",
            "last_name": "Funke",
            "avatar": "https://reqres.in/img/faces/9-image.jpg"
        },
        {
            "id": 10,
            "email": "byron.fields@reqres.in",
            "first_name": "Byron",
            "last_name": "Fields",
            "avatar": "https://reqres.in/img/faces/10-image.jpg"
        },
        {
            "id": 11,
            "email": "george.edwards@reqres.in",
            "first_name": "George",
            "last_name": "Edwards",
            "avatar": "https://reqres.in/img/faces/11-image.jpg"
        },
        {
            "id": 12,
            "email": "rachel.howell@reqres.in",
            "first_name": "Rachel",
            "last_name": "Howell",
            "avatar": "https://reqres.in/img/faces/12-image.jpg"
        }
    ],
    "support": {
        "url": "https://reqres.in/#support-heading",
        "text": "To keep ReqRes free, contributions towards server costs are appreciated!"
    }
}
response: {
    "page": 2,
    "per_page": 6,
    "total": 12,
    "total_pages": 2,
    "data": [
        {
            "id": 7,
            "email": "michael.lawson@reqres.in",
            "first_name": "Michael",
            "last_name": "Lawson",
            "avatar": "https://reqres.in/img/faces/7-image.jpg"
        },
        {
            "id": 8,
            "email": "lindsay.ferguson@reqres.in",
            "first_name": "Lindsay",
            "last_name": "Ferguson",
            "avatar": "https://reqres.in/img/faces/8-image.jpg"
        },
        {
            "id": 9,
            "email": "tobias.funke@reqres.in",
            "first_name": "Tobias",
            "last_name": "Funke",
            "avatar": "https://reqres.in/img/faces/9-image.jpg"
        },
        {
            "id": 10,
            "email": "byron.fields@reqres.in",
            "first_name": "Byron",
            "last_name": "Fields",
            "avatar": "https://reqres.in/img/faces/10-image.jpg"
        },
        {
            "id": 11,
            "email": "george.edwards@reqres.in",
            "first_name": "George",
            "last_name": "Edwards",
            "avatar": "https://reqres.in/img/faces/11-image.jpg"
        },
        {
            "id": 12,
            "email": "rachel.howell@reqres.in",
            "first_name": "Rachel",
            "last_name": "Howell",
            "avatar": "https://reqres.in/img/faces/12-image.jpg"
        }
    ],
    "support": {
        "url": "https://reqres.in/#support-heading",
        "text": "To keep ReqRes free, contributions towards server costs are appreciated!"
    }
}
  &amp#27;[32mGiven &amp#27;[0m&amp#27;[32mVerify get users&amp#27;[0m &amp#27;[90m# steps.APIStepDefinitions.getUsers()&amp#27;[0m
]]></system-out>
  </testcase>
  <testcase name="Post users" classname="Validate User API" time="0.643">
    <system-out><![CDATA[
@TestPostUser
Scenario: Post users      &amp#27;[90m# src/test/resources/features/UserAPIValidation.feature:8&amp#27;[0m
HTTP/1.1 301 Moved Permanently
Date: Wed, 28 Jul 2021 11:07:26 GMT
Transfer-Encoding: chunked
Cache-Control: max-age=3600
Expires: Wed, 28 Jul 2021 12:07:26 GMT
Location: https://reqres.in/api/users
cf-request-id: 0b8e65571e0000204951189000000001
Report-To: {"endpoints":[{"url":"https:\/\/a.nel.cloudflare.com\/report\/v3?s=r4kaGq2t5upel8p9jzOoqtr%2Fqi13j1wYJDmSJG8b50d45xEit4eehWXXHlHPSTfVYut0OP3GFWRwgx1CXezFWQifJeXVV0GPsBeu%2FBY3ypdinijhrJXMZhCCuJA%3D"}],"group":"cf-nel","max_age":604800}
NEL: {"report_to":"cf-nel","max_age":604800}
Vary: Accept-Encoding
Server: cloudflare
CF-RAY: 675da4d1ccca2049-NRT
alt-svc: h3-27=":443"; ma=86400, h3-28=":443"; ma=86400, h3-29=":443"; ma=86400, h3=":443"; ma=86400
Proxy-Connection: keep-alive
  &amp#27;[32mGiven &amp#27;[0m&amp#27;[32mVerify post users&amp#27;[0m &amp#27;[90m# steps.APIStepDefinitions.postUsers()&amp#27;[0m
]]></system-out>
  </testcase>
  <testcase name="Update users" classname="Validate User API" time="0.466">
    <system-out><![CDATA[
@TestUpdateUser
Scenario: Update users      &amp#27;[90m# src/test/resources/features/UserAPIValidation.feature:12&amp#27;[0m
HTTP/1.1 301 Moved Permanently
Date: Wed, 28 Jul 2021 11:07:26 GMT
Transfer-Encoding: chunked
Cache-Control: max-age=3600
Expires: Wed, 28 Jul 2021 12:07:26 GMT
Location: https://reqres.in/api/users
cf-request-id: 0b8e6558ef0000342cda2f3000000001
Report-To: {"endpoints":[{"url":"https:\/\/a.nel.cloudflare.com\/report\/v3?s=Y%2BsHry%2BKcxJ4hAHyVghqaGDAoZVIBq8W5vF0scPLw7MTPKK6xfw23tkvf%2FkSgAGYJSIeK07DJu5IwUd8FkU%2B29vh8Ki7O0YChWQ62aUhhjjnXq54YjZg1R6Kx34%3D"}],"group":"cf-nel","max_age":604800}
NEL: {"report_to":"cf-nel","max_age":604800}
Vary: Accept-Encoding
Server: cloudflare
CF-RAY: 675da4d4b874342c-NRT
alt-svc: h3-27=":443"; ma=86400, h3-28=":443"; ma=86400, h3-29=":443"; ma=86400, h3=":443"; ma=86400
Proxy-Connection: keep-alive
  &amp#27;[32mGiven &amp#27;[0m&amp#27;[32mVerify update users&amp#27;[0m &amp#27;[90m# steps.APIStepDefinitions.patchUsers()&amp#27;[0m
]]></system-out>
  </testcase>
  <testcase name="Excel sheet scenarios using Apache POI" classname="Validate User API" time="2.597">
    <system-out><![CDATA[
@TestReadExcel
Scenario: Excel sheet scenarios using Apache POI &amp#27;[90m# src/test/resources/features/UserAPIValidation.feature:16&amp#27;[0m
Firstname | Lastname | EmpId | 
Andrew | Musk | 10010.0 | 
Mike | Slater | 10020.0 | 
  &amp#27;[32mGiven &amp#27;[0m&amp#27;[32mGet excel data rows&amp#27;[0m                      &amp#27;[90m# steps.APIStepDefinitions.getExcelRows()&amp#27;[0m
  &amp#27;[32mThen &amp#27;[0m&amp#27;[32mWrite a new excel of empDetail&amp#27;[0m            &amp#27;[90m# steps.APIStepDefinitions.writeExcel()&amp#27;[0m
]]></system-out>
  </testcase>
</testsuite>